INDEX VERSION 1.127+/Users/MINJUN/Documents/JAVA(GAESUGANG)/.metadata/.plugins/org.eclipse.jdt.core
2408823549.index
1492766893.index
2332499830.index
3997593253.index
2399918452.index
365903770.index
3239237846.index
4273568963.index
2603489995.index
1056704741.index
1308420387.index
3576058027.index
2971326709.index
2209870153.index
3166495962.index
1006965460.index
2051052838.index
1877504670.index
4112176772.index
2153470027.index
4010447654.index
4227870688.index
507497960.index
1655552225.index
1547404114.index
3123331271.index
2620868450.index
583547524.index
1106618828.index
1736907145.index
3047390569.index
2182997522.index
1744670643.index
471670644.index
530172698.index
816763454.index
1468642379.index
3909959958.index
1486836615.index
1199704226.index
2817445769.index
2226276412.index
1820315914.index
2845837319.index
3198631029.index
1109759665.index
1270315800.index
685551007.index
4012227936.index
1247016687.index
4006327452.index
992489863.index
2392350002.index
3788427059.index
1125330483.index
2633358484.index
1658976319.index
3764338294.index
2868465707.index
993527423.index
2917133839.index
4253713330.index
3793322031.index
2952219624.index
3540960066.index
112058838.index
4061363800.index
4257367511.index
605860197.index
2923012823.index
498801030.index
1595193817.index
2549077750.index
1271342938.index
1157050631.index
3934229727.index
1803436839.index
2257623712.index
2978579992.index
2072366547.index
2151625870.index
22258982.index
2775959377.index
418647811.index
1413270740.index
259803429.index
3211089474.index
4061308272.index
2182002320.index
476311160.index
4082587601.index
3475119355.index
3724435645.index
2678431342.index
2376642904.index
4053248566.index
4251214904.index
3595486838.index
1031232343.index
2473784917.index
2488202250.index
1310218363.index
3387761128.index
3115226281.index
102519294.index
2428487615.index
1848726946.index
369741659.index
3150015294.index
413620022.index
3497406094.index
1760901832.index
2139576723.index
1439631890.index
784979180.index
2740883518.index
1993042143.index
198131621.index
1765342590.index
1630730168.index
2583585823.index
