<?xml version="1.0" encoding="UTF-8"?>
<session version="1.0">
<refactoring comment="Copy element &apos;DollarFormatDemo.java&apos; to &apos;DollarFormatDemo.java&apos;&#x0A;- Original project: &apos;Pro6-2&apos;&#x0A;- Destination element: &apos;DollarFormatDemo.java&apos;&#x0A;- Original element: &apos;DollarFormatDemo.java&apos;" description="Copy compilation unit" destination="/src&lt;{DollarFormatDemo.java" element1="/src&lt;{DollarFormatDemo.java" files="0" flags="589830" folders="0" id="org.eclipse.jdt.ui.copy" policy="org.eclipse.jdt.ui.copyResources" stamp="1398692401691" units="1" version="1.0"/>
</session>